^C:\GITPROJECTS\DOGTAG\DEBUGDOGTAG\DEBUGDOGTAG\PCH.CPP
C:\GITPROJECTS\DOGTAG\DEBUGDOGTAG\DEBUGDOGTAG\X64\DEBUG\DEBUGDOGTAG.PCH
C:\GITPROJECTS\DOGTAG\DEBUGDOGTAG\DEBUGDOGTAG\X64\DEBUG\VC141.PDB
C:\GITPROJECTS\DOGTAG\DEBUGDOGTAG\DEBUGDOGTAG\X64\DEBUG\VC141.IDB
C:\GITPROJECTS\DOGTAG\DEBUGDOGTAG\DEBUGDOGTAG\X64\DEBUG\PCH.OBJ
