^C:\GITPROJECTS\DOGTAG\DEBUGDOGTAG\DOGTAGWRAPPER\ASSEMBLYINFO.CPP|C:\GITPROJECTS\DOGTAG\DEBUGDOGTAG\DOGTAGWRAPPER\LAST_MATCH.CPP|C:\GITPROJECTS\DOGTAG\DEBUGDOGTAG\DOGTAGWRAPPER\USER.CPP
C:\GITPROJECTS\DOGTAG\DEBUGDOGTAG\DOGTAGWRAPPER\DEBUG\VC141.PDB
C:\GITPROJECTS\DOGTAG\DEBUGDOGTAG\DOGTAGWRAPPER\DEBUG\ASSEMBLYINFO.OBJ
^C:\GITPROJECTS\DOGTAG\DEBUGDOGTAG\DOGTAGWRAPPER\LAST_MATCH.CPP|C:\GITPROJECTS\DOGTAG\DEBUGDOGTAG\DOGTAGWRAPPER\USER.CPP
C:\GITPROJECTS\DOGTAG\DEBUGDOGTAG\DOGTAGWRAPPER\DEBUG\VC141.PDB
C:\GITPROJECTS\DOGTAG\DEBUGDOGTAG\DOGTAGWRAPPER\DEBUG\USER.OBJ
C:\GITPROJECTS\DOGTAG\DEBUGDOGTAG\DOGTAGWRAPPER\DEBUG\LAST_MATCH.OBJ
^C:\USERS\EFLAG\APPDATA\LOCAL\TEMP\.NETFRAMEWORK,VERSION=V4.6.1.ASSEMBLYATTRIBUTES.CPP
C:\GITPROJECTS\DOGTAG\DEBUGDOGTAG\DOGTAGWRAPPER\DEBUG\VC141.PDB
C:\GITPROJECTS\DOGTAG\DEBUGDOGTAG\DOGTAGWRAPPER\DEBUG\.NETFRAMEWORK,VERSION=V4.6.1.ASSEMBLYATTRIBUTES.OBJ
C:\GITPROJECTS\DOGTAG\DEBUGDOGTAG\DOGTAGWRAPPER\DEBUG\.NETFRAMEWORK,VERSION=V4.6.1.ASSEMBLYATTRIBUTES.ASM
^C:\GITPROJECTS\DOGTAG\DEBUGDOGTAG\DOGTAGWRAPPER\STDAFX.CPP
C:\GITPROJECTS\DOGTAG\DEBUGDOGTAG\DOGTAGWRAPPER\DEBUG\DOGTAGWRAPPER.PCH
C:\GITPROJECTS\DOGTAG\DEBUGDOGTAG\DOGTAGWRAPPER\DEBUG\VC141.PDB
C:\GITPROJECTS\DOGTAG\DEBUGDOGTAG\DOGTAGWRAPPER\DEBUG\STDAFX.OBJ
^C:\GITPROJECTS\DOGTAG\DEBUGDOGTAG\DOGTAGWRAPPER\ASSEMBLYINFO.CPP|C:\GITPROJECTS\DOGTAG\DEBUGDOGTAG\DOGTAGWRAPPER\LAST_MATCH.CPP|C:\GITPROJECTS\DOGTAG\DEBUGDOGTAG\DOGTAGWRAPPER\SEASON.CPP|C:\GITPROJECTS\DOGTAG\DEBUGDOGTAG\DOGTAGWRAPPER\USER.CPP
C:\GITPROJECTS\DOGTAG\DEBUGDOGTAG\DOGTAGWRAPPER\DEBUG\VC141.PDB
C:\GITPROJECTS\DOGTAG\DEBUGDOGTAG\DOGTAGWRAPPER\DEBUG\USER.OBJ
C:\GITPROJECTS\DOGTAG\DEBUGDOGTAG\DOGTAGWRAPPER\DEBUG\SEASON.OBJ
C:\GITPROJECTS\DOGTAG\DEBUGDOGTAG\DOGTAGWRAPPER\DEBUG\LAST_MATCH.OBJ
C:\GITPROJECTS\DOGTAG\DEBUGDOGTAG\DOGTAGWRAPPER\DEBUG\ASSEMBLYINFO.OBJ
^C:\GITPROJECTS\DOGTAG\DEBUGDOGTAG\DOGTAGWRAPPER\ASSEMBLYINFO.CPP
C:\GITPROJECTS\DOGTAG\DEBUGDOGTAG\DOGTAGWRAPPER\DEBUG\VC141.PDB
^C:\GITPROJECTS\DOGTAG\DEBUGDOGTAG\DOGTAGWRAPPER\LAST_MATCH.CPP|C:\GITPROJECTS\DOGTAG\DEBUGDOGTAG\DOGTAGWRAPPER\SEASON.CPP|C:\GITPROJECTS\DOGTAG\DEBUGDOGTAG\DOGTAGWRAPPER\USER.CPP
C:\GITPROJECTS\DOGTAG\DEBUGDOGTAG\DOGTAGWRAPPER\DEBUG\VC141.PDB
C:\GITPROJECTS\DOGTAG\DEBUGDOGTAG\DOGTAGWRAPPER\DEBUG\USER.OBJ
C:\GITPROJECTS\DOGTAG\DEBUGDOGTAG\DOGTAGWRAPPER\DEBUG\SEASON.OBJ
C:\GITPROJECTS\DOGTAG\DEBUGDOGTAG\DOGTAGWRAPPER\DEBUG\LAST_MATCH.OBJ
^C:\GITPROJECTS\DOGTAG\DEBUGDOGTAG\DOGTAGWRAPPER\LAST_MATCH.CPP
C:\GITPROJECTS\DOGTAG\DEBUGDOGTAG\DOGTAGWRAPPER\DEBUG\VC141.PDB
^C:\GITPROJECTS\DOGTAG\DEBUGDOGTAG\DOGTAGWRAPPER\SEASON.CPP
C:\GITPROJECTS\DOGTAG\DEBUGDOGTAG\DOGTAGWRAPPER\DEBUG\VC141.PDB
^C:\GITPROJECTS\DOGTAG\DEBUGDOGTAG\DOGTAGWRAPPER\USER.CPP
C:\GITPROJECTS\DOGTAG\DEBUGDOGTAG\DOGTAGWRAPPER\DEBUG\VC141.PDB
