^C:\GITPROJECTS\DOGTAG\DEBUGDOGTAG\DEBUG\DEBUGDOGTAG.LIB|C:\GITPROJECTS\DOGTAG\DEBUGDOGTAG\DOGTAGWRAPPER\DEBUG\.NETFRAMEWORK,VERSION=V4.6.1.ASSEMBLYATTRIBUTES.OBJ|C:\GITPROJECTS\DOGTAG\DEBUGDOGTAG\DOGTAGWRAPPER\DEBUG\APP.RES|C:\GITPROJECTS\DOGTAG\DEBUGDOGTAG\DOGTAGWRAPPER\DEBUG\ASSEMBLYINFO.OBJ|C:\GITPROJECTS\DOGTAG\DEBUGDOGTAG\DOGTAGWRAPPER\DEBUG\LAST_MATCH.OBJ|C:\GITPROJECTS\DOGTAG\DEBUGDOGTAG\DOGTAGWRAPPER\DEBUG\SEASON.OBJ|C:\GITPROJECTS\DOGTAG\DEBUGDOGTAG\DOGTAGWRAPPER\DEBUG\STDAFX.OBJ|C:\GITPROJECTS\DOGTAG\DEBUGDOGTAG\DOGTAGWRAPPER\DEBUG\USER.OBJ
C:\GITPROJECTS\VCPKG\INSTALLED\X86-WINDOWS\DEBUG\LIB\LIBCURL.LIB
C:\GITPROJECTS\VCPKG\INSTALLED\X86-WINDOWS\DEBUG\LIB\LIBEAY32.LIB
C:\GITPROJECTS\VCPKG\INSTALLED\X86-WINDOWS\DEBUG\LIB\LIBSSH2.LIB
C:\GITPROJECTS\VCPKG\INSTALLED\X86-WINDOWS\DEBUG\LIB\MBEDCRYPTO.LIB
C:\GITPROJECTS\VCPKG\INSTALLED\X86-WINDOWS\DEBUG\LIB\MBEDTLS.LIB
C:\GITPROJECTS\VCPKG\INSTALLED\X86-WINDOWS\DEBUG\LIB\MBEDX509.LIB
C:\GITPROJECTS\VCPKG\INSTALLED\X86-WINDOWS\DEBUG\LIB\NGHTTP2.LIB
C:\GITPROJECTS\VCPKG\INSTALLED\X86-WINDOWS\DEBUG\LIB\SSLEAY32.LIB
C:\GITPROJECTS\VCPKG\INSTALLED\X86-WINDOWS\DEBUG\LIB\ZLIBD.LIB
C:\GITPROJECTS\DOGTAG\DEBUGDOGTAG\DOGTAGWRAPPER\DEBUG\APP.RES
C:\GITPROJECTS\DOGTAG\DEBUGDOGTAG\DOGTAGWRAPPER\DEBUG\ASSEMBLYINFO.OBJ
C:\GITPROJECTS\DOGTAG\DEBUGDOGTAG\DOGTAGWRAPPER\DEBUG\LAST_MATCH.OBJ
C:\GITPROJECTS\DOGTAG\DEBUGDOGTAG\DOGTAGWRAPPER\DEBUG\SEASON.OBJ
C:\GITPROJECTS\DOGTAG\DEBUGDOGTAG\DOGTAGWRAPPER\DEBUG\STDAFX.OBJ
C:\GITPROJECTS\DOGTAG\DEBUGDOGTAG\DOGTAGWRAPPER\DEBUG\USER.OBJ
C:\GITPROJECTS\DOGTAG\DEBUGDOGTAG\DOGTAGWRAPPER\DEBUG\.NETFRAMEWORK,VERSION=V4.6.1.ASSEMBLYATTRIBUTES.OBJ
C:\GITPROJECTS\DOGTAG\DEBUGDOGTAG\DEBUG\DEBUGDOGTAG.LIB
C:\WINDOWS\GLOBALIZATION\SORTING\SORTDEFAULT.NLS
C:\PROGRAM FILES (X86)\MICROSOFT VISUAL STUDIO\2017\COMMUNITY\VC\TOOLS\MSVC\14.16.27023\BIN\HOSTX86\X86\1033\LINKUI.DLL
C:\PROGRAM FILES (X86)\MICROSOFT VISUAL STUDIO\2017\COMMUNITY\VC\TOOLS\MSVC\14.16.27023\BIN\HOSTX86\X86\LINK.EXE
C:\WINDOWS\SYSTEM32\TZRES.DLL
C:\WINDOWS\SYSTEM32\D3D11.DLL
C:\WINDOWS\SYSTEM32\D3D12.DLL
C:\WINDOWS\MICROSOFT.NET\FRAMEWORK\V2.0.50727\MSCORWKS.DLL
C:\WINDOWS\MICROSOFT.NET\FRAMEWORK\V4.0.30319\CLR.DLL
C:\PROGRAM FILES (X86)\MICROSOFT VISUAL STUDIO\2017\COMMUNITY\VC\TOOLS\MSVC\14.16.27023\BIN\HOSTX86\X86\LINK.EXE.CONFIG
C:\PROGRAM FILES (X86)\MICROSOFT VISUAL STUDIO\2017\COMMUNITY\VC\TOOLS\MSVC\14.16.27023\LIB\X86\MSVCRTD.LIB
C:\PROGRAM FILES (X86)\MICROSOFT VISUAL STUDIO\2017\COMMUNITY\VC\TOOLS\MSVC\14.16.27023\LIB\X86\OLDNAMES.LIB
C:\PROGRAM FILES (X86)\MICROSOFT VISUAL STUDIO\2017\COMMUNITY\VC\TOOLS\MSVC\14.16.27023\LIB\X86\MSVCMRTD.LIB
C:\PROGRAM FILES (X86)\WINDOWS KITS\NETFXSDK\4.6.1\LIB\UM\X86\MSCOREE.LIB
C:\PROGRAM FILES (X86)\MICROSOFT VISUAL STUDIO\2017\COMMUNITY\VC\TOOLS\MSVC\14.16.27023\LIB\X86\MSVCPRTD.LIB
C:\PROGRAM FILES (X86)\WINDOWS KITS\10\LIB\10.0.17763.0\UM\X86\KERNEL32.LIB
C:\PROGRAM FILES (X86)\MICROSOFT VISUAL STUDIO\2017\COMMUNITY\VC\TOOLS\MSVC\14.16.27023\LIB\X86\VCRUNTIMED.LIB
C:\PROGRAM FILES (X86)\WINDOWS KITS\10\LIB\10.0.17763.0\UCRT\X86\UCRTD.LIB
C:\PROGRAM FILES (X86)\WINDOWS KITS\10\LIB\10.0.17763.0\UM\X86\UUID.LIB
C:\PROGRAM FILES (X86)\WINDOWS KITS\10\BIN\10.0.17763.0\X86\RC.EXE
C:\PROGRAM FILES (X86)\MICROSOFT VISUAL STUDIO\2017\COMMUNITY\VC\TOOLS\MSVC\14.16.27023\BIN\HOSTX86\X86\CVTRES.EXE
C:\PROGRAM FILES (X86)\MICROSOFT VISUAL STUDIO\2017\COMMUNITY\VC\TOOLS\MSVC\14.16.27023\BIN\HOSTX86\X86\MSPDBSRV.EXE
C:\PROGRAM FILES (X86)\MICROSOFT VISUAL STUDIO\2017\COMMUNITY\VC\TOOLS\MSVC\14.16.27023\BIN\HOSTX86\X86\VCTIP.EXE
