^C:\GITPROJECTS\DOGTAG\DEBUGDOGTAG\DEBUGDOGTAG\RELEASE\DEBUGDOGTAG.OBJ|C:\GITPROJECTS\DOGTAG\DEBUGDOGTAG\DEBUGDOGTAG\RELEASE\PCH.OBJ
C:\GITPROJECTS\DOGTAG\DEBUGDOGTAG\RELEASE\DEBUGDOGTAG.EXE
C:\GITPROJECTS\DOGTAG\DEBUGDOGTAG\RELEASE\DEBUGDOGTAG.PDB
